<svg width="160" height="48" viewBox="0 0 160 48" fill="none" xmlns="http://www.w3.org/2000/svg">
<g clip-path="url(#clip0_3490_90)">
<path fill-rule="evenodd" clip-rule="evenodd" d="M4 1.00003H155C156.657 1.00003 158 2.34312 158 4.00003V44C158 45.6569 156.657 47 155 47H4C2.3432 47 1 45.6569 1 44V4.00003C1 2.34312 2.3432 1.00003 4 1.00003Z" fill="#305DB8"/>
<path d="M68.376 30V18.912H75.064V20.24H69.928V23.584H74.488V24.896H69.928V30H68.376ZM78.8773 28.928C79.2293 28.928 79.5386 28.9227 79.8053 28.912C80.0826 28.8907 80.3119 28.8587 80.4933 28.816V26.336C80.3866 26.2827 80.2106 26.24 79.9653 26.208C79.7306 26.1653 79.4426 26.144 79.1013 26.144C78.8773 26.144 78.6373 26.16 78.3813 26.192C78.1359 26.224 77.9066 26.2933 77.6933 26.4C77.4906 26.496 77.3199 26.6347 77.1813 26.816C77.0426 26.9867 76.9733 27.216 76.9733 27.504C76.9733 28.0373 77.1439 28.4107 77.4853 28.624C77.8266 28.8267 78.2906 28.928 78.8773 28.928ZM78.7493 21.472C79.3466 21.472 79.8479 21.552 80.2533 21.712C80.6693 21.8613 80.9999 22.08 81.2453 22.368C81.5013 22.6453 81.6826 22.9813 81.7893 23.376C81.8959 23.76 81.9493 24.1867 81.9493 24.656V29.856C81.8213 29.8773 81.6399 29.9093 81.4053 29.952C81.1813 29.984 80.9253 30.016 80.6373 30.048C80.3493 30.08 80.0346 30.1067 79.6933 30.128C79.3626 30.16 79.0319 30.176 78.7013 30.176C78.2319 30.176 77.7999 30.128 77.4053 30.032C77.0106 29.936 76.6693 29.7867 76.3813 29.584C76.0933 29.3707 75.8693 29.0933 75.7093 28.752C75.5493 28.4107 75.4693 28 75.4693 27.52C75.4693 27.0613 75.5599 26.6667 75.7413 26.336C75.9333 26.0053 76.1893 25.7387 76.5093 25.536C76.8293 25.3333 77.2026 25.184 77.6293 25.088C78.0559 24.992 78.5039 24.944 78.9733 24.944C79.1226 24.944 79.2773 24.9547 79.4373 24.976C79.5973 24.9867 79.7466 25.008 79.8853 25.04C80.0346 25.0613 80.1626 25.0827 80.2693 25.104C80.3759 25.1253 80.4506 25.1413 80.4933 25.152V24.736C80.4933 24.4907 80.4666 24.2507 80.4133 24.016C80.3599 23.7707 80.2639 23.5573 80.1253 23.376C79.9866 23.184 79.7946 23.0347 79.5493 22.928C79.3146 22.8107 79.0053 22.752 78.6213 22.752C78.1306 22.752 77.6986 22.7893 77.3253 22.864C76.9626 22.928 76.6906 22.9973 76.5093 23.072L76.3333 21.84C76.5253 21.7547 76.8453 21.6747 77.2933 21.6C77.7413 21.5147 78.2266 21.472 78.7493 21.472ZM88.0366 30.192C87.3646 30.192 86.7726 30.0853 86.2606 29.872C85.7593 29.6587 85.3326 29.36 84.9806 28.976C84.6393 28.592 84.3833 28.1387 84.2126 27.616C84.042 27.0827 83.9566 26.496 83.9566 25.856C83.9566 25.216 84.0473 24.6293 84.2286 24.096C84.4206 23.5627 84.6873 23.104 85.0286 22.72C85.37 22.3253 85.786 22.0213 86.2766 21.808C86.778 21.584 87.3326 21.472 87.9406 21.472C88.314 21.472 88.6873 21.504 89.0606 21.568C89.434 21.632 89.7913 21.7333 90.1326 21.872L89.7966 23.136C89.5726 23.0293 89.3113 22.944 89.0126 22.88C88.7246 22.816 88.4153 22.784 88.0846 22.784C87.2526 22.784 86.6126 23.0453 86.1646 23.568C85.7273 24.0907 85.5086 24.8533 85.5086 25.856C85.5086 26.304 85.5566 26.7147 85.6526 27.088C85.7593 27.4613 85.9193 27.7813 86.1326 28.048C86.3566 28.3147 86.6393 28.5227 86.9806 28.672C87.322 28.8107 87.738 28.88 88.2286 28.88C88.6233 28.88 88.9806 28.8427 89.3006 28.768C89.6206 28.6933 89.8713 28.6133 90.0526 28.528L90.2606 29.776C90.1753 29.8293 90.0526 29.8827 89.8926 29.936C89.7326 29.9787 89.5513 30.016 89.3486 30.048C89.146 30.0907 88.9273 30.1227 88.6926 30.144C88.4686 30.176 88.25 30.192 88.0366 30.192ZM91.3941 25.856C91.3941 25.12 91.5008 24.48 91.7141 23.936C91.9275 23.3813 92.2101 22.9227 92.5621 22.56C92.9141 22.1973 93.3195 21.9253 93.7781 21.744C94.2368 21.5627 94.7061 21.472 95.1861 21.472C96.3061 21.472 97.1648 21.824 97.7621 22.528C98.3595 23.2213 98.6581 24.2827 98.6581 25.712C98.6581 25.776 98.6581 25.8613 98.6581 25.968C98.6581 26.064 98.6528 26.1547 98.6421 26.24H92.9461C93.0101 27.104 93.2608 27.76 93.6981 28.208C94.1355 28.656 94.8181 28.88 95.7461 28.88C96.2688 28.88 96.7061 28.8373 97.0581 28.752C97.4208 28.656 97.6928 28.5653 97.8741 28.48L98.0821 29.728C97.9008 29.824 97.5808 29.9253 97.1221 30.032C96.6741 30.1387 96.1621 30.192 95.5861 30.192C94.8608 30.192 94.2315 30.0853 93.6981 29.872C93.1755 29.648 92.7435 29.344 92.4021 28.96C92.0608 28.576 91.8048 28.1227 91.6341 27.6C91.4741 27.0667 91.3941 26.4853 91.3941 25.856ZM97.1061 25.04C97.1168 24.368 96.9461 23.8187 96.5941 23.392C96.2528 22.9547 95.7781 22.736 95.1701 22.736C94.8288 22.736 94.5248 22.8053 94.2581 22.944C94.0021 23.072 93.7835 23.2427 93.6021 23.456C93.4208 23.6693 93.2768 23.9147 93.1701 24.192C93.0741 24.4693 93.0101 24.752 92.9781 25.04H97.1061ZM102.284 22.048C102.465 21.9307 102.737 21.808 103.1 21.68C103.473 21.552 103.9 21.488 104.38 21.488C104.977 21.488 105.505 21.5947 105.964 21.808C106.433 22.0213 106.828 22.32 107.148 22.704C107.468 23.088 107.708 23.5467 107.868 24.08C108.038 24.6133 108.124 25.2 108.124 25.84C108.124 26.512 108.022 27.12 107.82 27.664C107.628 28.1973 107.35 28.6507 106.988 29.024C106.625 29.3973 106.188 29.6853 105.676 29.888C105.164 30.0907 104.588 30.192 103.948 30.192C103.254 30.192 102.641 30.144 102.108 30.048C101.574 29.952 101.137 29.856 100.796 29.76V17.84L102.284 17.584V22.048ZM102.284 28.704C102.433 28.7467 102.641 28.7893 102.908 28.832C103.185 28.864 103.526 28.88 103.932 28.88C104.732 28.88 105.372 28.6187 105.852 28.096C106.332 27.5627 106.572 26.8107 106.572 25.84C106.572 25.4133 106.529 25.0133 106.444 24.64C106.358 24.2667 106.22 23.9467 106.028 23.68C105.836 23.4027 105.585 23.1893 105.276 23.04C104.977 22.88 104.614 22.8 104.188 22.8C103.782 22.8 103.409 22.8693 103.068 23.008C102.726 23.1467 102.465 23.2907 102.284 23.44V28.704ZM117.562 25.84C117.562 26.5013 117.466 27.0987 117.274 27.632C117.082 28.1653 116.81 28.624 116.458 29.008C116.116 29.392 115.706 29.6907 115.226 29.904C114.746 30.1067 114.223 30.208 113.658 30.208C113.092 30.208 112.57 30.1067 112.09 29.904C111.61 29.6907 111.194 29.392 110.842 29.008C110.5 28.624 110.234 28.1653 110.042 27.632C109.85 27.0987 109.754 26.5013 109.754 25.84C109.754 25.1893 109.85 24.5973 110.042 24.064C110.234 23.52 110.5 23.056 110.842 22.672C111.194 22.288 111.61 21.9947 112.09 21.792C112.57 21.5787 113.092 21.472 113.658 21.472C114.223 21.472 114.746 21.5787 115.226 21.792C115.706 21.9947 116.116 22.288 116.458 22.672C116.81 23.056 117.082 23.52 117.274 24.064C117.466 24.5973 117.562 25.1893 117.562 25.84ZM116.01 25.84C116.01 24.9013 115.796 24.16 115.37 23.616C114.954 23.0613 114.383 22.784 113.658 22.784C112.932 22.784 112.356 23.0613 111.93 23.616C111.514 24.16 111.306 24.9013 111.306 25.84C111.306 26.7787 111.514 27.5253 111.93 28.08C112.356 28.624 112.932 28.896 113.658 28.896C114.383 28.896 114.954 28.624 115.37 28.08C115.796 27.5253 116.01 26.7787 116.01 25.84ZM126.999 25.84C126.999 26.5013 126.903 27.0987 126.711 27.632C126.519 28.1653 126.247 28.624 125.895 29.008C125.554 29.392 125.143 29.6907 124.663 29.904C124.183 30.1067 123.66 30.208 123.095 30.208C122.53 30.208 122.007 30.1067 121.527 29.904C121.047 29.6907 120.631 29.392 120.279 29.008C119.938 28.624 119.671 28.1653 119.479 27.632C119.287 27.0987 119.191 26.5013 119.191 25.84C119.191 25.1893 119.287 24.5973 119.479 24.064C119.671 23.52 119.938 23.056 120.279 22.672C120.631 22.288 121.047 21.9947 121.527 21.792C122.007 21.5787 122.53 21.472 123.095 21.472C123.66 21.472 124.183 21.5787 124.663 21.792C125.143 21.9947 125.554 22.288 125.895 22.672C126.247 23.056 126.519 23.52 126.711 24.064C126.903 24.5973 126.999 25.1893 126.999 25.84ZM125.447 25.84C125.447 24.9013 125.234 24.16 124.807 23.616C124.391 23.0613 123.82 22.784 123.095 22.784C122.37 22.784 121.794 23.0613 121.367 23.616C120.951 24.16 120.743 24.9013 120.743 25.84C120.743 26.7787 120.951 27.5253 121.367 28.08C121.794 28.624 122.37 28.896 123.095 28.896C123.82 28.896 124.391 28.624 124.807 28.08C125.234 27.5253 125.447 26.7787 125.447 25.84ZM132.101 25.424C132.421 25.6693 132.757 25.9733 133.109 26.336C133.471 26.6987 133.823 27.0933 134.165 27.52C134.517 27.936 134.847 28.3627 135.157 28.8C135.466 29.2267 135.727 29.6267 135.941 30H134.197C133.973 29.6267 133.711 29.248 133.413 28.864C133.125 28.4693 132.821 28.096 132.501 27.744C132.181 27.3813 131.855 27.0507 131.525 26.752C131.194 26.4533 130.879 26.2027 130.581 26V30H129.093V17.84L130.581 17.584V25.168C130.837 24.912 131.119 24.6293 131.429 24.32C131.738 24.0107 132.042 23.696 132.341 23.376C132.639 23.056 132.922 22.752 133.189 22.464C133.455 22.1653 133.685 21.904 133.877 21.68H135.621C135.375 21.9467 135.109 22.24 134.821 22.56C134.533 22.88 134.234 23.2053 133.925 23.536C133.615 23.856 133.301 24.1813 132.981 24.512C132.671 24.832 132.378 25.136 132.101 25.424Z" fill="white"/>
<rect opacity="0.1" x="48" y="10" width="1" height="28" fill="#0A162F"/>
<path d="M24.8586 36V25.0533H28.5315L29.0826 20.7859H24.8586V18.0618C24.8586 16.8266 25.2002 15.9849 26.9734 15.9849L29.2312 15.984V12.1671C28.8408 12.1163 27.5004 12 25.9405 12C22.6829 12 20.4528 13.9884 20.4528 17.6391V20.7859H16.7688V25.0533H20.4528V36H24.8586Z" fill="white"/>
</g>
<defs>
<clipPath id="clip0_3490_90">
<rect width="160" height="48" fill="white"/>
</clipPath>
</defs>
</svg>
